%YAML 1.1
%TAG !u! tag:unity3d.com,2011:
--- !u!29 &1
OcclusionCullingSettings:
  m_ObjectHideFlags: 0
  serializedVersion: 2
  m_OcclusionBakeSettings:
    smallestOccluder: 5
    smallestHole: 0.25
    backfaceThreshold: 100
  m_SceneGUID: 00000000000000000000000000000000
  m_OcclusionCullingData: {fileID: 0}
--- !u!104 &2
RenderSettings:
  m_ObjectHideFlags: 0
  serializedVersion: 9
  m_Fog: 0
  m_FogColor: {r: 0.5, g: 0.5, b: 0.5, a: 1}
  m_FogMode: 3
  m_FogDensity: 0.01
  m_LinearFogStart: 0
  m_LinearFogEnd: 300
  m_AmbientSkyColor: {r: 0.212, g: 0.227, b: 0.259, a: 1}
  m_AmbientEquatorColor: {r: 0.114, g: 0.125, b: 0.133, a: 1}
  m_AmbientGroundColor: {r: 0.047, g: 0.043, b: 0.035, a: 1}
  m_AmbientIntensity: 1
  m_AmbientMode: 0
  m_SubtractiveShadowColor: {r: 0.42, g: 0.478, b: 0.627, a: 1}
  m_SkyboxMaterial: {fileID: 10304, guid: 0000000000000000f000000000000000, type: 0}
  m_HaloStrength: 0.5
  m_FlareStrength: 1
  m_FlareFadeSpeed: 3
  m_HaloTexture: {fileID: 0}
  m_SpotCookie: {fileID: 10001, guid: 0000000000000000e000000000000000, type: 0}
  m_DefaultReflectionMode: 0
  m_DefaultReflectionResolution: 128
  m_ReflectionBounces: 1
  m_ReflectionIntensity: 1
  m_CustomReflection: {fileID: 0}
  m_Sun: {fileID: 705507994}
  m_IndirectSpecularColor: {r: 0.44657898, g: 0.4964133, b: 0.5748178, a: 1}
  m_UseRadianceAmbientProbe: 0
--- !u!157 &3
LightmapSettings:
  m_ObjectHideFlags: 0
  serializedVersion: 11
  m_GIWorkflowMode: 0
  m_GISettings:
    serializedVersion: 2
    m_BounceScale: 1
    m_IndirectOutputScale: 1
    m_AlbedoBoost: 1
    m_EnvironmentLightingMode: 0
    m_EnableBakedLightmaps: 1
    m_EnableRealtimeLightmaps: 1
  m_LightmapEditorSettings:
    serializedVersion: 12
    m_Resolution: 2
    m_BakeResolution: 40
    m_AtlasSize: 1024
    m_AO: 0
    m_AOMaxDistance: 1
    m_CompAOExponent: 1
    m_CompAOExponentDirect: 0
    m_ExtractAmbientOcclusion: 0
    m_Padding: 2
    m_LightmapParameters: {fileID: 0}
    m_LightmapsBakeMode: 1
    m_TextureCompression: 1
    m_FinalGather: 0
    m_FinalGatherFiltering: 1
    m_FinalGatherRayCount: 256
    m_ReflectionCompression: 2
    m_MixedBakeMode: 2
    m_BakeBackend: 1
    m_PVRSampling: 1
    m_PVRDirectSampleCount: 32
    m_PVRSampleCount: 500
    m_PVRBounces: 2
    m_PVREnvironmentSampleCount: 500
    m_PVREnvironmentReferencePointCount: 2048
    m_PVRFilteringMode: 2
    m_PVRDenoiserTypeDirect: 0
    m_PVRDenoiserTypeIndirect: 0
    m_PVRDenoiserTypeAO: 0
    m_PVRFilterTypeDirect: 0
    m_PVRFilterTypeIndirect: 0
    m_PVRFilterTypeAO: 0
    m_PVREnvironmentMIS: 0
    m_PVRCulling: 1
    m_PVRFilteringGaussRadiusDirect: 1
    m_PVRFilteringGaussRadiusIndirect: 5
    m_PVRFilteringGaussRadiusAO: 2
    m_PVRFilteringAtrousPositionSigmaDirect: 0.5
    m_PVRFilteringAtrousPositionSigmaIndirect: 2
    m_PVRFilteringAtrousPositionSigmaAO: 1
    m_ShowResolutionOverlay: 1
    m_ExportTrainingData: 0
  m_LightingDataAsset: {fileID: 0}
  m_UseShadowmask: 1
--- !u!196 &4
NavMeshSettings:
  serializedVersion: 2
  m_ObjectHideFlags: 0
  m_BuildSettings:
    serializedVersion: 2
    agentTypeID: 0
    agentRadius: 0.5
    agentHeight: 2
    agentSlope: 45
    agentClimb: 0.4
    ledgeDropHeight: 0
    maxJumpAcrossDistance: 0
    minRegionArea: 2
    manualCellSize: 0
    cellSize: 0.16666667
    manualTileSize: 0
    tileSize: 256
    accuratePlacement: 0
    debug:
      m_Flags: 0
  m_NavMeshData: {fileID: 0}
--- !u!224 &109053409 stripped
RectTransform:
  m_CorrespondingSourceObject: {fileID: 7327775078384226802, guid: 74d7fcd73be22784d967d479f4efb0aa,
    type: 3}
  m_PrefabInstance: {fileID: 7327775078359061523}
  m_PrefabAsset: {fileID: 0}
--- !u!1 &272089127
GameObject:
  m_ObjectHideFlags: 0
  m_CorrespondingSourceObject: {fileID: 0}
  m_PrefabInstance: {fileID: 0}
  m_PrefabAsset: {fileID: 0}
  serializedVersion: 6
  m_Component:
  - component: {fileID: 272089128}
  - component: {fileID: 272089129}
  - component: {fileID: 272089130}
  m_Layer: 5
  m_Name: CanvasManager
  m_TagString: Untagged
  m_Icon: {fileID: 0}
  m_NavMeshLayer: 0
  m_StaticEditorFlags: 0
  m_IsActive: 1
--- !u!224 &272089128
RectTransform:
  m_ObjectHideFlags: 0
  m_CorrespondingSourceObject: {fileID: 0}
  m_PrefabInstance: {fileID: 0}
  m_PrefabAsset: {fileID: 0}
  m_GameObject: {fileID: 272089127}
  m_LocalRotation: {x: -0, y: -0, z: -0, w: 1}
  m_LocalPosition: {x: 0, y: 0, z: 0}
  m_LocalScale: {x: 0.2, y: 0.2, z: 1}
  m_Children:
  - {fileID: 109053409}
  - {fileID: 504676653}
  - {fileID: 287839201015949058}
  - {fileID: 1053849078}
  - {fileID: 1285638110}
  - {fileID: 1835076874}
  m_Father: {fileID: 430548645}
  m_RootOrder: 1
  m_LocalEulerAnglesHint: {x: 0, y: 0, z: 0}
  m_AnchorMin: {x: 0.5, y: 0.5}
  m_AnchorMax: {x: 0.5, y: 0.5}
  m_AnchoredPosition: {x: -110, y: 56}
  m_SizeDelta: {x: 100, y: 100}
  m_Pivot: {x: 0.5, y: 0.5}
--- !u!114 &272089129
MonoBehaviour:
  m_ObjectHideFlags: 0
  m_CorrespondingSourceObject: {fileID: 0}
  m_PrefabInstance: {fileID: 0}
  m_PrefabAsset: {fileID: 0}
  m_GameObject: {fileID: 272089127}
  m_Enabled: 0
  m_EditorHideFlags: 0
  m_Script: {fileID: -2095666955, guid: f70555f144d8491a825f0804e09c671c, type: 3}
  m_Name: 
  m_EditorClassIdentifier: 
  m_Padding:
    m_Left: 0
    m_Right: 0
    m_Top: 0
    m_Bottom: 0
  m_ChildAlignment: 0
  m_StartCorner: 0
  m_StartAxis: 0
  m_CellSize: {x: 290, y: 165}
  m_Spacing: {x: 0, y: 1}
  m_Constraint: 0
  m_ConstraintCount: 2
--- !u!114 &272089130
MonoBehaviour:
  m_ObjectHideFlags: 0
  m_CorrespondingSourceObject: {fileID: 0}
  m_PrefabInstance: {fileID: 0}
  m_PrefabAsset: {fileID: 0}
  m_GameObject: {fileID: 272089127}
  m_Enabled: 1
  m_EditorHideFlags: 0
  m_Script: {fileID: 11500000, guid: cdb157219f8a28b43b4df2d0feebf17d, type: 3}
  m_Name: 
  m_EditorClassIdentifier: 
  shadowBlock: {fileID: 7985944803941998427, guid: 2a52c8f54f3c7c84db2aa51b52eed120,
    type: 3}
--- !u!1 &430548641
GameObject:
  m_ObjectHideFlags: 0
  m_CorrespondingSourceObject: {fileID: 0}
  m_PrefabInstance: {fileID: 0}
  m_PrefabAsset: {fileID: 0}
  serializedVersion: 6
  m_Component:
  - component: {fileID: 430548645}
  - component: {fileID: 430548644}
  - component: {fileID: 430548643}
  - component: {fileID: 430548642}
  m_Layer: 5
  m_Name: Canvas
  m_TagString: Untagged
  m_Icon: {fileID: 0}
  m_NavMeshLayer: 0
  m_StaticEditorFlags: 0
  m_IsActive: 1
--- !u!114 &430548642
MonoBehaviour:
  m_ObjectHideFlags: 0
  m_CorrespondingSourceObject: {fileID: 0}
  m_PrefabInstance: {fileID: 0}
  m_PrefabAsset: {fileID: 0}
  m_GameObject: {fileID: 430548641}
  m_Enabled: 1
  m_EditorHideFlags: 0
  m_Script: {fileID: 1301386320, guid: f70555f144d8491a825f0804e09c671c, type: 3}
  m_Name: 
  m_EditorClassIdentifier: 
  m_IgnoreReversedGraphics: 1
  m_BlockingObjects: 0
  m_BlockingMask:
    serializedVersion: 2
    m_Bits: 4294967295
--- !u!114 &430548643
MonoBehaviour:
  m_ObjectHideFlags: 0
  m_CorrespondingSourceObject: {fileID: 0}
  m_PrefabInstance: {fileID: 0}
  m_PrefabAsset: {fileID: 0}
  m_GameObject: {fileID: 430548641}
  m_Enabled: 1
  m_EditorHideFlags: 0
  m_Script: {fileID: 1980459831, guid: f70555f144d8491a825f0804e09c671c, type: 3}
  m_Name: 
  m_EditorClassIdentifier: 
  m_UiScaleMode: 0
  m_ReferencePixelsPerUnit: 100
  m_ScaleFactor: 1
  m_ReferenceResolution: {x: 800, y: 600}
  m_ScreenMatchMode: 0
  m_MatchWidthOrHeight: 0
  m_PhysicalUnit: 3
  m_FallbackScreenDPI: 96
  m_DefaultSpriteDPI: 96
  m_DynamicPixelsPerUnit: 1
--- !u!223 &430548644
Canvas:
  m_ObjectHideFlags: 0
  m_CorrespondingSourceObject: {fileID: 0}
  m_PrefabInstance: {fileID: 0}
  m_PrefabAsset: {fileID: 0}
  m_GameObject: {fileID: 430548641}
  m_Enabled: 1
  serializedVersion: 3
  m_RenderMode: 0
  m_Camera: {fileID: 0}
  m_PlaneDistance: 100
  m_PixelPerfect: 0
  m_ReceivesEvents: 1
  m_OverrideSorting: 0
  m_OverridePixelPerfect: 0
  m_SortingBucketNormalizedSize: 0
  m_AdditionalShaderChannelsFlag: 0
  m_SortingLayerID: 0
  m_SortingOrder: 0
  m_TargetDisplay: 0
--- !u!224 &430548645
RectTransform:
  m_ObjectHideFlags: 0
  m_CorrespondingSourceObject: {fileID: 0}
  m_PrefabInstance: {fileID: 0}
  m_PrefabAsset: {fileID: 0}
  m_GameObject: {fileID: 430548641}
  m_LocalRotation: {x: 0, y: 0, z: 0, w: 1}
  m_LocalPosition: {x: 0, y: 0, z: 0}
  m_LocalScale: {x: 0, y: 0, z: 0}
  m_Children:
  - {fileID: 1425788913}
  - {fileID: 272089128}
  m_Father: {fileID: 0}
  m_RootOrder: 2
  m_LocalEulerAnglesHint: {x: 0, y: 0, z: 0}
  m_AnchorMin: {x: 0, y: 0}
  m_AnchorMax: {x: 0, y: 0}
  m_AnchoredPosition: {x: 0, y: 0}
  m_SizeDelta: {x: 0, y: 0}
  m_Pivot: {x: 0, y: 0}
--- !u!224 &504676653 stripped
RectTransform:
  m_CorrespondingSourceObject: {fileID: 7327775078384226802, guid: 74d7fcd73be22784d967d479f4efb0aa,
    type: 3}
  m_PrefabInstance: {fileID: 1412773548}
  m_PrefabAsset: {fileID: 0}
--- !u!1 &705507993
GameObject:
  m_ObjectHideFlags: 0
  m_CorrespondingSourceObject: {fileID: 0}
  m_PrefabInstance: {fileID: 0}
  m_PrefabAsset: {fileID: 0}
  serializedVersion: 6
  m_Component:
  - component: {fileID: 705507995}
  - component: {fileID: 705507994}
  m_Layer: 0
  m_Name: Directional Light
  m_TagString: Untagged
  m_Icon: {fileID: 0}
  m_NavMeshLayer: 0
  m_StaticEditorFlags: 0
  m_IsActive: 1
--- !u!108 &705507994
Light:
  m_ObjectHideFlags: 0
  m_CorrespondingSourceObject: {fileID: 0}
  m_PrefabInstance: {fileID: 0}
  m_PrefabAsset: {fileID: 0}
  m_GameObject: {fileID: 705507993}
  m_Enabled: 1
  serializedVersion: 9
  m_Type: 1
  m_Color: {r: 1, g: 0.95686275, b: 0.8392157, a: 1}
  m_Intensity: 1
  m_Range: 10
  m_SpotAngle: 30
  m_InnerSpotAngle: 21.80208
  m_CookieSize: 10
  m_Shadows:
    m_Type: 2
    m_Resolution: -1
    m_CustomResolution: -1
    m_Strength: 1
    m_Bias: 0.05
    m_NormalBias: 0.4
    m_NearPlane: 0.2
    m_CullingMatrixOverride:
      e00: 1
      e01: 0
      e02: 0
      e03: 0
      e10: 0
      e11: 1
      e12: 0
      e13: 0
      e20: 0
      e21: 0
      e22: 1
      e23: 0
      e30: 0
      e31: 0
      e32: 0
      e33: 1
    m_UseCullingMatrixOverride: 0
  m_Cookie: {fileID: 0}
  m_DrawHalo: 0
  m_Flare: {fileID: 0}
  m_RenderMode: 0
  m_CullingMask:
    serializedVersion: 2
    m_Bits: 4294967295
  m_RenderingLayerMask: 1
  m_Lightmapping: 1
  m_LightShadowCasterMode: 0
  m_AreaSize: {x: 1, y: 1}
  m_BounceIntensity: 1
  m_ColorTemperature: 6570
  m_UseColorTemperature: 0
  m_BoundingSphereOverride: {x: 0, y: 0, z: 0, w: 0}
  m_UseBoundingSphereOverride: 0
  m_ShadowRadius: 0
  m_ShadowAngle: 0
--- !u!4 &705507995
Transform:
  m_ObjectHideFlags: 0
  m_CorrespondingSourceObject: {fileID: 0}
  m_PrefabInstance: {fileID: 0}
  m_PrefabAsset: {fileID: 0}
  m_GameObject: {fileID: 705507993}
  m_LocalRotation: {x: 0.40821788, y: -0.23456968, z: 0.10938163, w: 0.8754261}
  m_LocalPosition: {x: 0, y: 3, z: 0}
  m_LocalScale: {x: 1, y: 1, z: 1}
  m_Children: []
  m_Father: {fileID: 0}
  m_RootOrder: 1
  m_LocalEulerAnglesHint: {x: 50, y: -30, z: 0}
--- !u!1 &963194225
GameObject:
  m_ObjectHideFlags: 0
  m_CorrespondingSourceObject: {fileID: 0}
  m_PrefabInstance: {fileID: 0}
  m_PrefabAsset: {fileID: 0}
  serializedVersion: 6
  m_Component:
  - component: {fileID: 963194228}
  - component: {fileID: 963194227}
  - component: {fileID: 963194226}
  m_Layer: 0
  m_Name: Main Camera
  m_TagString: MainCamera
  m_Icon: {fileID: 0}
  m_NavMeshLayer: 0
  m_StaticEditorFlags: 0
  m_IsActive: 1
--- !u!81 &963194226
AudioListener:
  m_ObjectHideFlags: 0
  m_CorrespondingSourceObject: {fileID: 0}
  m_PrefabInstance: {fileID: 0}
  m_PrefabAsset: {fileID: 0}
  m_GameObject: {fileID: 963194225}
  m_Enabled: 1
--- !u!20 &963194227
Camera:
  m_ObjectHideFlags: 0
  m_CorrespondingSourceObject: {fileID: 0}
  m_PrefabInstance: {fileID: 0}
  m_PrefabAsset: {fileID: 0}
  m_GameObject: {fileID: 963194225}
  m_Enabled: 1
  serializedVersion: 2
  m_ClearFlags: 1
  m_BackGroundColor: {r: 0.19215687, g: 0.3019608, b: 0.4745098, a: 0}
  m_projectionMatrixMode: 1
  m_GateFitMode: 2
  m_FOVAxisMode: 0
  m_SensorSize: {x: 36, y: 24}
  m_LensShift: {x: 0, y: 0}
  m_FocalLength: 50
  m_NormalizedViewPortRect:
    serializedVersion: 2
    x: 0
    y: 0
    width: 1
    height: 1
  near clip plane: 0.3
  far clip plane: 1000
  field of view: 60
  orthographic: 0
  orthographic size: 5
  m_Depth: -1
  m_CullingMask:
    serializedVersion: 2
    m_Bits: 4294967295
  m_RenderingPath: -1
  m_TargetTexture: {fileID: 0}
  m_TargetDisplay: 0
  m_TargetEye: 3
  m_HDR: 1
  m_AllowMSAA: 1
  m_AllowDynamicResolution: 0
  m_ForceIntoRT: 0
  m_OcclusionCulling: 1
  m_StereoConvergence: 10
  m_StereoSeparation: 0.022
--- !u!4 &963194228
Transform:
  m_ObjectHideFlags: 0
  m_CorrespondingSourceObject: {fileID: 0}
  m_PrefabInstance: {fileID: 0}
  m_PrefabAsset: {fileID: 0}
  m_GameObject: {fileID: 963194225}
  m_LocalRotation: {x: 0, y: 0, z: 0, w: 1}
  m_LocalPosition: {x: 0, y: 1, z: -10}
  m_LocalScale: {x: 1, y: 1, z: 1}
  m_Children: []
  m_Father: {fileID: 0}
  m_RootOrder: 0
  m_LocalEulerAnglesHint: {x: 0, y: 0, z: 0}
--- !u!224 &1053849078 stripped
RectTransform:
  m_CorrespondingSourceObject: {fileID: 3722466515899954247, guid: 15867f5cdee21f34c83196d33d3706e8,
    type: 3}
  m_PrefabInstance: {fileID: 1817224133}
  m_PrefabAsset: {fileID: 0}
--- !u!224 &1285638110 stripped
RectTransform:
  m_CorrespondingSourceObject: {fileID: 3722466515899954247, guid: 15867f5cdee21f34c83196d33d3706e8,
    type: 3}
  m_PrefabInstance: {fileID: 2027634981}
  m_PrefabAsset: {fileID: 0}
--- !u!1001 &1412773548
PrefabInstance:
  m_ObjectHideFlags: 0
  serializedVersion: 2
  m_Modification:
    m_TransformParent: {fileID: 272089128}
    m_Modifications:
    - target: {fileID: 7327775078384226803, guid: 74d7fcd73be22784d967d479f4efb0aa,
        type: 3}
      propertyPath: m_Name
      value: Block (1)
      objectReference: {fileID: 0}
    - target: {fileID: 7327775078384226802, guid: 74d7fcd73be22784d967d479f4efb0aa,
        type: 3}
      propertyPath: m_LocalPosition.x
      value: 0
      objectReference: {fileID: 0}
    - target: {fileID: 7327775078384226802, guid: 74d7fcd73be22784d967d479f4efb0aa,
        type: 3}
      propertyPath: m_LocalPosition.y
      value: 0
      objectReference: {fileID: 0}
    - target: {fileID: 7327775078384226802, guid: 74d7fcd73be22784d967d479f4efb0aa,
        type: 3}
      propertyPath: m_LocalPosition.z
      value: 0
      objectReference: {fileID: 0}
    - target: {fileID: 7327775078384226802, guid: 74d7fcd73be22784d967d479f4efb0aa,
        type: 3}
      propertyPath: m_LocalRotation.x
      value: -0
      objectReference: {fileID: 0}
    - target: {fileID: 7327775078384226802, guid: 74d7fcd73be22784d967d479f4efb0aa,
        type: 3}
      propertyPath: m_LocalRotation.y
      value: -0
      objectReference: {fileID: 0}
    - target: {fileID: 7327775078384226802, guid: 74d7fcd73be22784d967d479f4efb0aa,
        type: 3}
      propertyPath: m_LocalRotation.z
      value: -0
      objectReference: {fileID: 0}
    - target: {fileID: 7327775078384226802, guid: 74d7fcd73be22784d967d479f4efb0aa,
        type: 3}
      propertyPath: m_LocalRotation.w
      value: 1
      objectReference: {fileID: 0}
    - target: {fileID: 7327775078384226802, guid: 74d7fcd73be22784d967d479f4efb0aa,
        type: 3}
      propertyPath: m_RootOrder
      value: 1
      objectReference: {fileID: 0}
    - target: {fileID: 7327775078384226802, guid: 74d7fcd73be22784d967d479f4efb0aa,
        type: 3}
      propertyPath: m_LocalEulerAnglesHint.x
      value: 0
      objectReference: {fileID: 0}
    - target: {fileID: 7327775078384226802, guid: 74d7fcd73be22784d967d479f4efb0aa,
        type: 3}
      propertyPath: m_LocalEulerAnglesHint.y
      value: 0
      objectReference: {fileID: 0}
    - target: {fileID: 7327775078384226802, guid: 74d7fcd73be22784d967d479f4efb0aa,
        type: 3}
      propertyPath: m_LocalEulerAnglesHint.z
      value: 0
      objectReference: {fileID: 0}
    - target: {fileID: 7327775078384226802, guid: 74d7fcd73be22784d967d479f4efb0aa,
        type: 3}
      propertyPath: m_AnchoredPosition.x
      value: 1568
      objectReference: {fileID: 0}
    - target: {fileID: 7327775078384226802, guid: 74d7fcd73be22784d967d479f4efb0aa,
        type: 3}
      propertyPath: m_AnchoredPosition.y
      value: -821
      objectReference: {fileID: 0}
    - target: {fileID: 7327775078384226802, guid: 74d7fcd73be22784d967d479f4efb0aa,
        type: 3}
      propertyPath: m_SizeDelta.x
      value: 1331
      objectReference: {fileID: 0}
    - target: {fileID: 7327775078384226802, guid: 74d7fcd73be22784d967d479f4efb0aa,
        type: 3}
      propertyPath: m_SizeDelta.y
      value: 704.2
      objectReference: {fileID: 0}
    - target: {fileID: 7327775078384226802, guid: 74d7fcd73be22784d967d479f4efb0aa,
        type: 3}
      propertyPath: m_AnchorMin.x
      value: 0.5
      objectReference: {fileID: 0}
    - target: {fileID: 7327775078384226802, guid: 74d7fcd73be22784d967d479f4efb0aa,
        type: 3}
      propertyPath: m_AnchorMin.y
      value: 0.5
      objectReference: {fileID: 0}
    - target: {fileID: 7327775078384226802, guid: 74d7fcd73be22784d967d479f4efb0aa,
        type: 3}
      propertyPath: m_AnchorMax.x
      value: 0.5
      objectReference: {fileID: 0}
    - target: {fileID: 7327775078384226802, guid: 74d7fcd73be22784d967d479f4efb0aa,
        type: 3}
      propertyPath: m_AnchorMax.y
      value: 0.5
      objectReference: {fileID: 0}
    - target: {fileID: 7327775078384226802, guid: 74d7fcd73be22784d967d479f4efb0aa,
        type: 3}
      propertyPath: m_Pivot.x
      value: 0.5
      objectReference: {fileID: 0}
    - target: {fileID: 7327775078384226802, guid: 74d7fcd73be22784d967d479f4efb0aa,
        type: 3}
      propertyPath: m_Pivot.y
      value: 0.5
      objectReference: {fileID: 0}
    - target: {fileID: 7327775078384226800, guid: 74d7fcd73be22784d967d479f4efb0aa,
        type: 3}
      propertyPath: canvasManager
      value: 
      objectReference: {fileID: 272089130}
    m_RemovedComponents: []
  m_SourcePrefab: {fileID: 100100000, guid: 74d7fcd73be22784d967d479f4efb0aa, type: 3}
--- !u!1 &1425788912
GameObject:
  m_ObjectHideFlags: 0
  m_CorrespondingSourceObject: {fileID: 0}
  m_PrefabInstance: {fileID: 0}
  m_PrefabAsset: {fileID: 0}
  serializedVersion: 6
  m_Component:
  - component: {fileID: 1425788913}
  - component: {fileID: 1425788915}
  - component: {fileID: 1425788914}
  m_Layer: 5
  m_Name: Panel
  m_TagString: Untagged
  m_Icon: {fileID: 0}
  m_NavMeshLayer: 0
  m_StaticEditorFlags: 0
  m_IsActive: 1
--- !u!224 &1425788913
RectTransform:
  m_ObjectHideFlags: 0
  m_CorrespondingSourceObject: {fileID: 0}
  m_PrefabInstance: {fileID: 0}
  m_PrefabAsset: {fileID: 0}
  m_GameObject: {fileID: 1425788912}
  m_LocalRotation: {x: 0, y: 0, z: 0, w: 1}
  m_LocalPosition: {x: 0, y: 0, z: 0}
  m_LocalScale: {x: 1, y: 1, z: 1}
  m_Children: []
  m_Father: {fileID: 430548645}
  m_RootOrder: 0
  m_LocalEulerAnglesHint: {x: 0, y: 0, z: 0}
  m_AnchorMin: {x: 0, y: 0}
  m_AnchorMax: {x: 1, y: 1}
  m_AnchoredPosition: {x: 0, y: 0}
  m_SizeDelta: {x: 0, y: 0}
  m_Pivot: {x: 0.5, y: 0.5}
--- !u!114 &1425788914
MonoBehaviour:
  m_ObjectHideFlags: 0
  m_CorrespondingSourceObject: {fileID: 0}
  m_PrefabInstance: {fileID: 0}
  m_PrefabAsset: {fileID: 0}
  m_GameObject: {fileID: 1425788912}
  m_Enabled: 1
  m_EditorHideFlags: 0
  m_Script: {fileID: -765806418, guid: f70555f144d8491a825f0804e09c671c, type: 3}
  m_Name: 
  m_EditorClassIdentifier: 
  m_Material: {fileID: 0}
  m_Color: {r: 1, g: 1, b: 1, a: 0.392}
  m_RaycastTarget: 1
  m_OnCullStateChanged:
    m_PersistentCalls:
      m_Calls: []
    m_TypeName: UnityEngine.UI.MaskableGraphic+CullStateChangedEvent, UnityEngine.UI,
      Version=1.0.0.0, Culture=neutral, PublicKeyToken=null
  m_Sprite: {fileID: 10907, guid: 0000000000000000f000000000000000, type: 0}
  m_Type: 1
  m_PreserveAspect: 0
  m_FillCenter: 1
  m_FillMethod: 4
  m_FillAmount: 1
  m_FillClockwise: 1
  m_FillOrigin: 0
  m_UseSpriteMesh: 0
--- !u!222 &1425788915
CanvasRenderer:
  m_ObjectHideFlags: 0
  m_CorrespondingSourceObject: {fileID: 0}
  m_PrefabInstance: {fileID: 0}
  m_PrefabAsset: {fileID: 0}
  m_GameObject: {fileID: 1425788912}
  m_CullTransparentMesh: 0
--- !u!1001 &1817224133
PrefabInstance:
  m_ObjectHideFlags: 0
  serializedVersion: 2
  m_Modification:
    m_TransformParent: {fileID: 272089128}
    m_Modifications:
    - target: {fileID: 3722466515899954246, guid: 15867f5cdee21f34c83196d33d3706e8,
        type: 3}
      propertyPath: m_Name
      value: NoHoleBlock (1)
      objectReference: {fileID: 0}
    - target: {fileID: 3722466515899954247, guid: 15867f5cdee21f34c83196d33d3706e8,
        type: 3}
      propertyPath: m_LocalPosition.x
      value: 0
      objectReference: {fileID: 0}
    - target: {fileID: 3722466515899954247, guid: 15867f5cdee21f34c83196d33d3706e8,
        type: 3}
      propertyPath: m_LocalPosition.y
      value: 0
      objectReference: {fileID: 0}
    - target: {fileID: 3722466515899954247, guid: 15867f5cdee21f34c83196d33d3706e8,
        type: 3}
      propertyPath: m_LocalPosition.z
      value: 0
      objectReference: {fileID: 0}
    - target: {fileID: 3722466515899954247, guid: 15867f5cdee21f34c83196d33d3706e8,
        type: 3}
      propertyPath: m_LocalRotation.x
      value: -0
      objectReference: {fileID: 0}
    - target: {fileID: 3722466515899954247, guid: 15867f5cdee21f34c83196d33d3706e8,
        type: 3}
      propertyPath: m_LocalRotation.y
      value: -0
      objectReference: {fileID: 0}
    - target: {fileID: 3722466515899954247, guid: 15867f5cdee21f34c83196d33d3706e8,
        type: 3}
      propertyPath: m_LocalRotation.z
      value: -0
      objectReference: {fileID: 0}
    - target: {fileID: 3722466515899954247, guid: 15867f5cdee21f34c83196d33d3706e8,
        type: 3}
      propertyPath: m_LocalRotation.w
      value: 1
      objectReference: {fileID: 0}
    - target: {fileID: 3722466515899954247, guid: 15867f5cdee21f34c83196d33d3706e8,
        type: 3}
      propertyPath: m_RootOrder
      value: 3
      objectReference: {fileID: 0}
    - target: {fileID: 3722466515899954247, guid: 15867f5cdee21f34c83196d33d3706e8,
        type: 3}
      propertyPath: m_LocalEulerAnglesHint.x
      value: 0
      objectReference: {fileID: 0}
    - target: {fileID: 3722466515899954247, guid: 15867f5cdee21f34c83196d33d3706e8,
        type: 3}
      propertyPath: m_LocalEulerAnglesHint.y
      value: 0
      objectReference: {fileID: 0}
    - target: {fileID: 3722466515899954247, guid: 15867f5cdee21f34c83196d33d3706e8,
        type: 3}
      propertyPath: m_LocalEulerAnglesHint.z
      value: 0
      objectReference: {fileID: 0}
    - target: {fileID: 3722466515899954247, guid: 15867f5cdee21f34c83196d33d3706e8,
        type: 3}
      propertyPath: m_AnchoredPosition.x
      value: -193
      objectReference: {fileID: 0}
    - target: {fileID: 3722466515899954247, guid: 15867f5cdee21f34c83196d33d3706e8,
        type: 3}
      propertyPath: m_AnchoredPosition.y
      value: -1472
      objectReference: {fileID: 0}
    - target: {fileID: 3722466515899954247, guid: 15867f5cdee21f34c83196d33d3706e8,
        type: 3}
      propertyPath: m_SizeDelta.x
      value: 1040
      objectReference: {fileID: 0}
    - target: {fileID: 3722466515899954247, guid: 15867f5cdee21f34c83196d33d3706e8,
        type: 3}
      propertyPath: m_SizeDelta.y
      value: 251
      objectReference: {fileID: 0}
    - target: {fileID: 3722466515899954247, guid: 15867f5cdee21f34c83196d33d3706e8,
        type: 3}
      propertyPath: m_AnchorMin.x
      value: 0.5
      objectReference: {fileID: 0}
    - target: {fileID: 3722466515899954247, guid: 15867f5cdee21f34c83196d33d3706e8,
        type: 3}
      propertyPath: m_AnchorMin.y
      value: 0.5
      objectReference: {fileID: 0}
    - target: {fileID: 3722466515899954247, guid: 15867f5cdee21f34c83196d33d3706e8,
        type: 3}
      propertyPath: m_AnchorMax.x
      value: 0.5
      objectReference: {fileID: 0}
    - target: {fileID: 3722466515899954247, guid: 15867f5cdee21f34c83196d33d3706e8,
        type: 3}
      propertyPath: m_AnchorMax.y
      value: 0.5
      objectReference: {fileID: 0}
    - target: {fileID: 3722466515899954247, guid: 15867f5cdee21f34c83196d33d3706e8,
        type: 3}
      propertyPath: m_Pivot.x
      value: 0.5
      objectReference: {fileID: 0}
    - target: {fileID: 3722466515899954247, guid: 15867f5cdee21f34c83196d33d3706e8,
        type: 3}
      propertyPath: m_Pivot.y
      value: 0.5
      objectReference: {fileID: 0}
    - target: {fileID: 3722466515899954247, guid: 15867f5cdee21f34c83196d33d3706e8,
        type: 3}
      propertyPath: m_LocalScale.x
      value: 1
      objectReference: {fileID: 0}
    - target: {fileID: 3722466515899954247, guid: 15867f5cdee21f34c83196d33d3706e8,
        type: 3}
      propertyPath: m_LocalScale.y
      value: 1
      objectReference: {fileID: 0}
    - target: {fileID: 8601917262476047974, guid: 15867f5cdee21f34c83196d33d3706e8,
        type: 3}
      propertyPath: canvasManager
      value: 
      objectReference: {fileID: 272089130}
    m_RemovedComponents: []
  m_SourcePrefab: {fileID: 100100000, guid: 15867f5cdee21f34c83196d33d3706e8, type: 3}
--- !u!1001 &1835076873
PrefabInstance:
  m_ObjectHideFlags: 0
  serializedVersion: 2
  m_Modification:
    m_TransformParent: {fileID: 272089128}
    m_Modifications:
    - target: {fileID: 7327775078384226803, guid: 74d7fcd73be22784d967d479f4efb0aa,
        type: 3}
      propertyPath: m_Name
      value: Block (2)
      objectReference: {fileID: 0}
    - target: {fileID: 7327775078384226802, guid: 74d7fcd73be22784d967d479f4efb0aa,
        type: 3}
      propertyPath: m_LocalPosition.x
      value: 0
      objectReference: {fileID: 0}
    - target: {fileID: 7327775078384226802, guid: 74d7fcd73be22784d967d479f4efb0aa,
        type: 3}
      propertyPath: m_LocalPosition.y
      value: 0
      objectReference: {fileID: 0}
    - target: {fileID: 7327775078384226802, guid: 74d7fcd73be22784d967d479f4efb0aa,
        type: 3}
      propertyPath: m_LocalPosition.z
      value: 0
      objectReference: {fileID: 0}
    - target: {fileID: 7327775078384226802, guid: 74d7fcd73be22784d967d479f4efb0aa,
        type: 3}
      propertyPath: m_LocalRotation.x
      value: -0
      objectReference: {fileID: 0}
    - target: {fileID: 7327775078384226802, guid: 74d7fcd73be22784d967d479f4efb0aa,
        type: 3}
      propertyPath: m_LocalRotation.y
      value: -0
      objectReference: {fileID: 0}
    - target: {fileID: 7327775078384226802, guid: 74d7fcd73be22784d967d479f4efb0aa,
        type: 3}
      propertyPath: m_LocalRotation.z
      value: -0
      objectReference: {fileID: 0}
    - target: {fileID: 7327775078384226802, guid: 74d7fcd73be22784d967d479f4efb0aa,
        type: 3}
      propertyPath: m_LocalRotation.w
      value: 1
      objectReference: {fileID: 0}
    - target: {fileID: 7327775078384226802, guid: 74d7fcd73be22784d967d479f4efb0aa,
        type: 3}
      propertyPath: m_RootOrder
      value: 5
      objectReference: {fileID: 0}
    - target: {fileID: 7327775078384226802, guid: 74d7fcd73be22784d967d479f4efb0aa,
        type: 3}
      propertyPath: m_LocalEulerAnglesHint.x
      value: 0
      objectReference: {fileID: 0}
    - target: {fileID: 7327775078384226802, guid: 74d7fcd73be22784d967d479f4efb0aa,
        type: 3}
      propertyPath: m_LocalEulerAnglesHint.y
      value: 0
      objectReference: {fileID: 0}
    - target: {fileID: 7327775078384226802, guid: 74d7fcd73be22784d967d479f4efb0aa,
        type: 3}
      propertyPath: m_LocalEulerAnglesHint.z
      value: 0
      objectReference: {fileID: 0}
    - target: {fileID: 7327775078384226802, guid: 74d7fcd73be22784d967d479f4efb0aa,
        type: 3}
      propertyPath: m_AnchoredPosition.x
      value: -74
      objectReference: {fileID: 0}
    - target: {fileID: 7327775078384226802, guid: 74d7fcd73be22784d967d479f4efb0aa,
        type: 3}
      propertyPath: m_AnchoredPosition.y
      value: -20
      objectReference: {fileID: 0}
    - target: {fileID: 7327775078384226802, guid: 74d7fcd73be22784d967d479f4efb0aa,
        type: 3}
      propertyPath: m_SizeDelta.x
      value: 1331
      objectReference: {fileID: 0}
    - target: {fileID: 7327775078384226802, guid: 74d7fcd73be22784d967d479f4efb0aa,
        type: 3}
      propertyPath: m_SizeDelta.y
      value: 704.2
      objectReference: {fileID: 0}
    - target: {fileID: 7327775078384226802, guid: 74d7fcd73be22784d967d479f4efb0aa,
        type: 3}
      propertyPath: m_AnchorMin.x
      value: 0.5
      objectReference: {fileID: 0}
    - target: {fileID: 7327775078384226802, guid: 74d7fcd73be22784d967d479f4efb0aa,
        type: 3}
      propertyPath: m_AnchorMin.y
      value: 0.5
      objectReference: {fileID: 0}
    - target: {fileID: 7327775078384226802, guid: 74d7fcd73be22784d967d479f4efb0aa,
        type: 3}
      propertyPath: m_AnchorMax.x
      value: 0.5
      objectReference: {fileID: 0}
    - target: {fileID: 7327775078384226802, guid: 74d7fcd73be22784d967d479f4efb0aa,
        type: 3}
      propertyPath: m_AnchorMax.y
      value: 0.5
      objectReference: {fileID: 0}
    - target: {fileID: 7327775078384226802, guid: 74d7fcd73be22784d967d479f4efb0aa,
        type: 3}
      propertyPath: m_Pivot.x
      value: 0.5
      objectReference: {fileID: 0}
    - target: {fileID: 7327775078384226802, guid: 74d7fcd73be22784d967d479f4efb0aa,
        type: 3}
      propertyPath: m_Pivot.y
      value: 0.5
      objectReference: {fileID: 0}
    - target: {fileID: 7327775078384226800, guid: 74d7fcd73be22784d967d479f4efb0aa,
        type: 3}
      propertyPath: canvasManager
      value: 
      objectReference: {fileID: 272089130}
    m_RemovedComponents: []
  m_SourcePrefab: {fileID: 100100000, guid: 74d7fcd73be22784d967d479f4efb0aa, type: 3}
--- !u!224 &1835076874 stripped
RectTransform:
  m_CorrespondingSourceObject: {fileID: 7327775078384226802, guid: 74d7fcd73be22784d967d479f4efb0aa,
    type: 3}
  m_PrefabInstance: {fileID: 1835076873}
  m_PrefabAsset: {fileID: 0}
--- !u!1 &1869332438
GameObject:
  m_ObjectHideFlags: 0
  m_CorrespondingSourceObject: {fileID: 0}
  m_PrefabInstance: {fileID: 0}
  m_PrefabAsset: {fileID: 0}
  serializedVersion: 6
  m_Component:
  - component: {fileID: 1869332441}
  - component: {fileID: 1869332440}
  - component: {fileID: 1869332439}
  m_Layer: 0
  m_Name: EventSystem
  m_TagString: Untagged
  m_Icon: {fileID: 0}
  m_NavMeshLayer: 0
  m_StaticEditorFlags: 0
  m_IsActive: 1
--- !u!114 &1869332439
MonoBehaviour:
  m_ObjectHideFlags: 0
  m_CorrespondingSourceObject: {fileID: 0}
  m_PrefabInstance: {fileID: 0}
  m_PrefabAsset: {fileID: 0}
  m_GameObject: {fileID: 1869332438}
  m_Enabled: 1
  m_EditorHideFlags: 0
  m_Script: {fileID: 1077351063, guid: f70555f144d8491a825f0804e09c671c, type: 3}
  m_Name: 
  m_EditorClassIdentifier: 
  m_HorizontalAxis: Horizontal
  m_VerticalAxis: Vertical
  m_SubmitButton: Submit
  m_CancelButton: Cancel
  m_InputActionsPerSecond: 10
  m_RepeatDelay: 0.5
  m_ForceModuleActive: 0
--- !u!114 &1869332440
MonoBehaviour:
  m_ObjectHideFlags: 0
  m_CorrespondingSourceObject: {fileID: 0}
  m_PrefabInstance: {fileID: 0}
  m_PrefabAsset: {fileID: 0}
  m_GameObject: {fileID: 1869332438}
  m_Enabled: 1
  m_EditorHideFlags: 0
  m_Script: {fileID: -619905303, guid: f70555f144d8491a825f0804e09c671c, type: 3}
  m_Name: 
  m_EditorClassIdentifier: 
  m_FirstSelected: {fileID: 0}
  m_sendNavigationEvents: 1
  m_DragThreshold: 10
--- !u!4 &1869332441
Transform:
  m_ObjectHideFlags: 0
  m_CorrespondingSourceObject: {fileID: 0}
  m_PrefabInstance: {fileID: 0}
  m_PrefabAsset: {fileID: 0}
  m_GameObject: {fileID: 1869332438}
  m_LocalRotation: {x: 0, y: 0, z: 0, w: 1}
  m_LocalPosition: {x: 0, y: 0, z: 0}
  m_LocalScale: {x: 1, y: 1, z: 1}
  m_Children: []
  m_Father: {fileID: 0}
  m_RootOrder: 3
  m_LocalEulerAnglesHint: {x: 0, y: 0, z: 0}
--- !u!1001 &2027634981
PrefabInstance:
  m_ObjectHideFlags: 0
  serializedVersion: 2
  m_Modification:
    m_TransformParent: {fileID: 272089128}
    m_Modifications:
    - target: {fileID: 3722466515899954246, guid: 15867f5cdee21f34c83196d33d3706e8,
        type: 3}
      propertyPath: m_Name
      value: NoHoleBlock (2)
      objectReference: {fileID: 0}
    - target: {fileID: 3722466515899954247, guid: 15867f5cdee21f34c83196d33d3706e8,
        type: 3}
      propertyPath: m_LocalPosition.x
      value: 0
      objectReference: {fileID: 0}
    - target: {fileID: 3722466515899954247, guid: 15867f5cdee21f34c83196d33d3706e8,
        type: 3}
      propertyPath: m_LocalPosition.y
      value: 0
      objectReference: {fileID: 0}
    - target: {fileID: 3722466515899954247, guid: 15867f5cdee21f34c83196d33d3706e8,
        type: 3}
      propertyPath: m_LocalPosition.z
      value: 0
      objectReference: {fileID: 0}
    - target: {fileID: 3722466515899954247, guid: 15867f5cdee21f34c83196d33d3706e8,
        type: 3}
      propertyPath: m_LocalRotation.x
      value: -0
      objectReference: {fileID: 0}
    - target: {fileID: 3722466515899954247, guid: 15867f5cdee21f34c83196d33d3706e8,
        type: 3}
      propertyPath: m_LocalRotation.y
      value: -0
      objectReference: {fileID: 0}
    - target: {fileID: 3722466515899954247, guid: 15867f5cdee21f34c83196d33d3706e8,
        type: 3}
      propertyPath: m_LocalRotation.z
      value: -0
      objectReference: {fileID: 0}
    - target: {fileID: 3722466515899954247, guid: 15867f5cdee21f34c83196d33d3706e8,
        type: 3}
      propertyPath: m_LocalRotation.w
      value: 1
      objectReference: {fileID: 0}
    - target: {fileID: 3722466515899954247, guid: 15867f5cdee21f34c83196d33d3706e8,
        type: 3}
      propertyPath: m_RootOrder
      value: 4
      objectReference: {fileID: 0}
    - target: {fileID: 3722466515899954247, guid: 15867f5cdee21f34c83196d33d3706e8,
        type: 3}
      propertyPath: m_LocalEulerAnglesHint.x
      value: 0
      objectReference: {fileID: 0}
    - target: {fileID: 3722466515899954247, guid: 15867f5cdee21f34c83196d33d3706e8,
        type: 3}
      propertyPath: m_LocalEulerAnglesHint.y
      value: 0
      objectReference: {fileID: 0}
    - target: {fileID: 3722466515899954247, guid: 15867f5cdee21f34c83196d33d3706e8,
        type: 3}
      propertyPath: m_LocalEulerAnglesHint.z
      value: 0
      objectReference: {fileID: 0}
    - target: {fileID: 3722466515899954247, guid: 15867f5cdee21f34c83196d33d3706e8,
        type: 3}
      propertyPath: m_AnchoredPosition.x
      value: -193
      objectReference: {fileID: 0}
    - target: {fileID: 3722466515899954247, guid: 15867f5cdee21f34c83196d33d3706e8,
        type: 3}
      propertyPath: m_AnchoredPosition.y
      value: 711
      objectReference: {fileID: 0}
    - target: {fileID: 3722466515899954247, guid: 15867f5cdee21f34c83196d33d3706e8,
        type: 3}
      propertyPath: m_SizeDelta.x
      value: 1040
      objectReference: {fileID: 0}
    - target: {fileID: 3722466515899954247, guid: 15867f5cdee21f34c83196d33d3706e8,
        type: 3}
      propertyPath: m_SizeDelta.y
      value: 251
      objectReference: {fileID: 0}
    - target: {fileID: 3722466515899954247, guid: 15867f5cdee21f34c83196d33d3706e8,
        type: 3}
      propertyPath: m_AnchorMin.x
      value: 0.5
      objectReference: {fileID: 0}
    - target: {fileID: 3722466515899954247, guid: 15867f5cdee21f34c83196d33d3706e8,
        type: 3}
      propertyPath: m_AnchorMin.y
      value: 0.5
      objectReference: {fileID: 0}
    - target: {fileID: 3722466515899954247, guid: 15867f5cdee21f34c83196d33d3706e8,
        type: 3}
      propertyPath: m_AnchorMax.x
      value: 0.5
      objectReference: {fileID: 0}
    - target: {fileID: 3722466515899954247, guid: 15867f5cdee21f34c83196d33d3706e8,
        type: 3}
      propertyPath: m_AnchorMax.y
      value: 0.5
      objectReference: {fileID: 0}
    - target: {fileID: 3722466515899954247, guid: 15867f5cdee21f34c83196d33d3706e8,
        type: 3}
      propertyPath: m_Pivot.x
      value: 0.5
      objectReference: {fileID: 0}
    - target: {fileID: 3722466515899954247, guid: 15867f5cdee21f34c83196d33d3706e8,
        type: 3}
      propertyPath: m_Pivot.y
      value: 0.5
      objectReference: {fileID: 0}
    - target: {fileID: 3722466515899954247, guid: 15867f5cdee21f34c83196d33d3706e8,
        type: 3}
      propertyPath: m_LocalScale.x
      value: 1
      objectReference: {fileID: 0}
    - target: {fileID: 3722466515899954247, guid: 15867f5cdee21f34c83196d33d3706e8,
        type: 3}
      propertyPath: m_LocalScale.y
      value: 1
      objectReference: {fileID: 0}
    - target: {fileID: 8601917262476047974, guid: 15867f5cdee21f34c83196d33d3706e8,
        type: 3}
      propertyPath: canvasManager
      value: 
      objectReference: {fileID: 272089130}
    m_RemovedComponents: []
  m_SourcePrefab: {fileID: 100100000, guid: 15867f5cdee21f34c83196d33d3706e8, type: 3}
--- !u!224 &287839201015949058 stripped
RectTransform:
  m_CorrespondingSourceObject: {fileID: 3722466515899954247, guid: 15867f5cdee21f34c83196d33d3706e8,
    type: 3}
  m_PrefabInstance: {fileID: 3483050151121802053}
  m_PrefabAsset: {fileID: 0}
--- !u!1001 &3483050151121802053
PrefabInstance:
  m_ObjectHideFlags: 0
  serializedVersion: 2
  m_Modification:
    m_TransformParent: {fileID: 272089128}
    m_Modifications:
    - target: {fileID: 3722466515899954246, guid: 15867f5cdee21f34c83196d33d3706e8,
        type: 3}
      propertyPath: m_Name
      value: NoHoleBlock
      objectReference: {fileID: 0}
    - target: {fileID: 3722466515899954247, guid: 15867f5cdee21f34c83196d33d3706e8,
        type: 3}
      propertyPath: m_LocalPosition.x
      value: 0
      objectReference: {fileID: 0}
    - target: {fileID: 3722466515899954247, guid: 15867f5cdee21f34c83196d33d3706e8,
        type: 3}
      propertyPath: m_LocalPosition.y
      value: 0
      objectReference: {fileID: 0}
    - target: {fileID: 3722466515899954247, guid: 15867f5cdee21f34c83196d33d3706e8,
        type: 3}
      propertyPath: m_LocalPosition.z
      value: 0
      objectReference: {fileID: 0}
    - target: {fileID: 3722466515899954247, guid: 15867f5cdee21f34c83196d33d3706e8,
        type: 3}
      propertyPath: m_LocalRotation.x
      value: -0
      objectReference: {fileID: 0}
    - target: {fileID: 3722466515899954247, guid: 15867f5cdee21f34c83196d33d3706e8,
        type: 3}
      propertyPath: m_LocalRotation.y
      value: -0
      objectReference: {fileID: 0}
    - target: {fileID: 3722466515899954247, guid: 15867f5cdee21f34c83196d33d3706e8,
        type: 3}
      propertyPath: m_LocalRotation.z
      value: -0
      objectReference: {fileID: 0}
    - target: {fileID: 3722466515899954247, guid: 15867f5cdee21f34c83196d33d3706e8,
        type: 3}
      propertyPath: m_LocalRotation.w
      value: 1
      objectReference: {fileID: 0}
    - target: {fileID: 3722466515899954247, guid: 15867f5cdee21f34c83196d33d3706e8,
        type: 3}
      propertyPath: m_RootOrder
      value: 2
      objectReference: {fileID: 0}
    - target: {fileID: 3722466515899954247, guid: 15867f5cdee21f34c83196d33d3706e8,
        type: 3}
      propertyPath: m_LocalEulerAnglesHint.x
      value: 0
      objectReference: {fileID: 0}
    - target: {fileID: 3722466515899954247, guid: 15867f5cdee21f34c83196d33d3706e8,
        type: 3}
      propertyPath: m_LocalEulerAnglesHint.y
      value: 0
      objectReference: {fileID: 0}
    - target: {fileID: 3722466515899954247, guid: 15867f5cdee21f34c83196d33d3706e8,
        type: 3}
      propertyPath: m_LocalEulerAnglesHint.z
      value: 0
      objectReference: {fileID: 0}
    - target: {fileID: 3722466515899954247, guid: 15867f5cdee21f34c83196d33d3706e8,
        type: 3}
      propertyPath: m_AnchoredPosition.x
      value: 1576
      objectReference: {fileID: 0}
    - target: {fileID: 3722466515899954247, guid: 15867f5cdee21f34c83196d33d3706e8,
        type: 3}
      propertyPath: m_AnchoredPosition.y
      value: -1472
      objectReference: {fileID: 0}
    - target: {fileID: 3722466515899954247, guid: 15867f5cdee21f34c83196d33d3706e8,
        type: 3}
      propertyPath: m_SizeDelta.x
      value: 1040
      objectReference: {fileID: 0}
    - target: {fileID: 3722466515899954247, guid: 15867f5cdee21f34c83196d33d3706e8,
        type: 3}
      propertyPath: m_SizeDelta.y
      value: 251
      objectReference: {fileID: 0}
    - target: {fileID: 3722466515899954247, guid: 15867f5cdee21f34c83196d33d3706e8,
        type: 3}
      propertyPath: m_AnchorMin.x
      value: 0.5
      objectReference: {fileID: 0}
    - target: {fileID: 3722466515899954247, guid: 15867f5cdee21f34c83196d33d3706e8,
        type: 3}
      propertyPath: m_AnchorMin.y
      value: 0.5
      objectReference: {fileID: 0}
    - target: {fileID: 3722466515899954247, guid: 15867f5cdee21f34c83196d33d3706e8,
        type: 3}
      propertyPath: m_AnchorMax.x
      value: 0.5
      objectReference: {fileID: 0}
    - target: {fileID: 3722466515899954247, guid: 15867f5cdee21f34c83196d33d3706e8,
        type: 3}
      propertyPath: m_AnchorMax.y
      value: 0.5
      objectReference: {fileID: 0}
    - target: {fileID: 3722466515899954247, guid: 15867f5cdee21f34c83196d33d3706e8,
        type: 3}
      propertyPath: m_Pivot.x
      value: 0.5
      objectReference: {fileID: 0}
    - target: {fileID: 3722466515899954247, guid: 15867f5cdee21f34c83196d33d3706e8,
        type: 3}
      propertyPath: m_Pivot.y
      value: 0.5
      objectReference: {fileID: 0}
    - target: {fileID: 3722466515899954247, guid: 15867f5cdee21f34c83196d33d3706e8,
        type: 3}
      propertyPath: m_LocalScale.x
      value: 1
      objectReference: {fileID: 0}
    - target: {fileID: 3722466515899954247, guid: 15867f5cdee21f34c83196d33d3706e8,
        type: 3}
      propertyPath: m_LocalScale.y
      value: 1
      objectReference: {fileID: 0}
    - target: {fileID: 8601917262476047974, guid: 15867f5cdee21f34c83196d33d3706e8,
        type: 3}
      propertyPath: canvasManager
      value: 
      objectReference: {fileID: 272089130}
    m_RemovedComponents: []
  m_SourcePrefab: {fileID: 100100000, guid: 15867f5cdee21f34c83196d33d3706e8, type: 3}
--- !u!1001 &7327775078359061523
PrefabInstance:
  m_ObjectHideFlags: 0
  serializedVersion: 2
  m_Modification:
    m_TransformParent: {fileID: 272089128}
    m_Modifications:
    - target: {fileID: 7327775078384226803, guid: 74d7fcd73be22784d967d479f4efb0aa,
        type: 3}
      propertyPath: m_Name
      value: Block
      objectReference: {fileID: 0}
    - target: {fileID: 7327775078384226802, guid: 74d7fcd73be22784d967d479f4efb0aa,
        type: 3}
      propertyPath: m_LocalPosition.x
      value: 0
      objectReference: {fileID: 0}
    - target: {fileID: 7327775078384226802, guid: 74d7fcd73be22784d967d479f4efb0aa,
        type: 3}
      propertyPath: m_LocalPosition.y
      value: 0
      objectReference: {fileID: 0}
    - target: {fileID: 7327775078384226802, guid: 74d7fcd73be22784d967d479f4efb0aa,
        type: 3}
      propertyPath: m_LocalPosition.z
      value: 0
      objectReference: {fileID: 0}
    - target: {fileID: 7327775078384226802, guid: 74d7fcd73be22784d967d479f4efb0aa,
        type: 3}
      propertyPath: m_LocalRotation.x
      value: -0
      objectReference: {fileID: 0}
    - target: {fileID: 7327775078384226802, guid: 74d7fcd73be22784d967d479f4efb0aa,
        type: 3}
      propertyPath: m_LocalRotation.y
      value: -0
      objectReference: {fileID: 0}
    - target: {fileID: 7327775078384226802, guid: 74d7fcd73be22784d967d479f4efb0aa,
        type: 3}
      propertyPath: m_LocalRotation.z
      value: -0
      objectReference: {fileID: 0}
    - target: {fileID: 7327775078384226802, guid: 74d7fcd73be22784d967d479f4efb0aa,
        type: 3}
      propertyPath: m_LocalRotation.w
      value: 1
      objectReference: {fileID: 0}
    - target: {fileID: 7327775078384226802, guid: 74d7fcd73be22784d967d479f4efb0aa,
        type: 3}
      propertyPath: m_RootOrder
      value: 0
      objectReference: {fileID: 0}
    - target: {fileID: 7327775078384226802, guid: 74d7fcd73be22784d967d479f4efb0aa,
        type: 3}
      propertyPath: m_LocalEulerAnglesHint.x
      value: 0
      objectReference: {fileID: 0}
    - target: {fileID: 7327775078384226802, guid: 74d7fcd73be22784d967d479f4efb0aa,
        type: 3}
      propertyPath: m_LocalEulerAnglesHint.y
      value: 0
      objectReference: {fileID: 0}
    - target: {fileID: 7327775078384226802, guid: 74d7fcd73be22784d967d479f4efb0aa,
        type: 3}
      propertyPath: m_LocalEulerAnglesHint.z
      value: 0
      objectReference: {fileID: 0}
    - target: {fileID: 7327775078384226802, guid: 74d7fcd73be22784d967d479f4efb0aa,
        type: 3}
      propertyPath: m_AnchoredPosition.x
      value: -74
      objectReference: {fileID: 0}
    - target: {fileID: 7327775078384226802, guid: 74d7fcd73be22784d967d479f4efb0aa,
        type: 3}
      propertyPath: m_AnchoredPosition.y
      value: -821
      objectReference: {fileID: 0}
    - target: {fileID: 7327775078384226802, guid: 74d7fcd73be22784d967d479f4efb0aa,
        type: 3}
      propertyPath: m_SizeDelta.x
      value: 1331
      objectReference: {fileID: 0}
    - target: {fileID: 7327775078384226802, guid: 74d7fcd73be22784d967d479f4efb0aa,
        type: 3}
      propertyPath: m_SizeDelta.y
      value: 704.2
      objectReference: {fileID: 0}
    - target: {fileID: 7327775078384226802, guid: 74d7fcd73be22784d967d479f4efb0aa,
        type: 3}
      propertyPath: m_AnchorMin.x
      value: 0.5
      objectReference: {fileID: 0}
    - target: {fileID: 7327775078384226802, guid: 74d7fcd73be22784d967d479f4efb0aa,
        type: 3}
      propertyPath: m_AnchorMin.y
      value: 0.5
      objectReference: {fileID: 0}
    - target: {fileID: 7327775078384226802, guid: 74d7fcd73be22784d967d479f4efb0aa,
        type: 3}
      propertyPath: m_AnchorMax.x
      value: 0.5
      objectReference: {fileID: 0}
    - target: {fileID: 7327775078384226802, guid: 74d7fcd73be22784d967d479f4efb0aa,
        type: 3}
      propertyPath: m_AnchorMax.y
      value: 0.5
      objectReference: {fileID: 0}
    - target: {fileID: 7327775078384226802, guid: 74d7fcd73be22784d967d479f4efb0aa,
        type: 3}
      propertyPath: m_Pivot.x
      value: 0.5
      objectReference: {fileID: 0}
    - target: {fileID: 7327775078384226802, guid: 74d7fcd73be22784d967d479f4efb0aa,
        type: 3}
      propertyPath: m_Pivot.y
      value: 0.5
      objectReference: {fileID: 0}
    - target: {fileID: 7327775078384226800, guid: 74d7fcd73be22784d967d479f4efb0aa,
        type: 3}
      propertyPath: canvasManager
      value: 
      objectReference: {fileID: 272089130}
    m_RemovedComponents: []
  m_SourcePrefab: {fileID: 100100000, guid: 74d7fcd73be22784d967d479f4efb0aa, type: 3}
